Project 1: Exploratory Data Analysis
…
library(tidyverse)

txstatistics <- read.csv("~/Project/txstatistics.csv")
txhomevalues <- read.csv("~/Project/txhomevalues.csv")
# 1. Tidy Data
txstatistics %>% pivot_wider(names_from = city, values_from = avg_income) %>% 
    pivot_longer(1:50, names_to = "city", values_to = "avg_income")

## # A tibble: 2,500 x 4
##     Waco `Wichita Falls` city         avg_income
##    <int>           <int> <chr>             <dbl>
##  1    NA              NA population     123420  
##  2    NA              NA percent_bach       23.5
##  3    NA              NA Abilene         50659  
##  4    NA              NA Amarillo           NA  
##  5    NA              NA Arlington          NA  
##  6    NA              NA Austin             NA  
##  7    NA              NA Beaumont           NA  
##  8    NA              NA Bellaire           NA  
##  9    NA              NA Bellmead           NA  
## 10    NA              NA Big Spring         NA  
## # … with 2,490 more rows

txhomevalues %>% pivot_longer(contains("."), names_to = "Date", 
    values_to = "home_value") %>% separate(Date, into = c("month", 
    "year"))

## # A tibble: 1,200 x 5
##    city    State month year  home_value
##    <fct>   <fct> <chr> <chr>      <int>
##  1 Abilene TX    Jan   2019      134088
##  2 Abilene TX    Feb   2019      134271
##  3 Abilene TX    Mar   2019      134473
##  4 Abilene TX    Apr   2019      134844
##  5 Abilene TX    May   2019      135201
##  6 Abilene TX    Jun   2019      135388
##  7 Abilene TX    Jul   2019      135521
##  8 Abilene TX    Aug   2019      136207
##  9 Abilene TX    Sep   2019      136927
## 10 Abilene TX    Oct   2019      137398
## # … with 1,190 more rows

txhome_tidy <- txhomevalues %>% pivot_longer(contains("."), names_to = "Date", 
    values_to = "home_value") %>% separate(Date, into = c("month", 
    "year"))

The txstatistics dataset did not need to be tidy. The txhomevalues dataset did need to be tidy because month and year were combined as one variable and the average home value wasn’t it’s own variable. So I pivoted longer taking the names Month.Year to a column called date and the values to it’s own column called home_value. Then I had to separate the months and the year because they were both within the new “Date” variable I created. So I used the separate function to separate the Month.Year by the period, which is the default R setting, into two new columns called “month” and “year.”

Join Data

inner_join(txhome_tidy, txstatistics)

## # A tibble: 1,200 x 8
##    city    State month year  home_value avg_income population percent_bach
##    <fct>   <fct> <chr> <chr>      <int>      <int>      <int>        <dbl>
##  1 Abilene TX    Jan   2019      134088      50659     123420         23.5
##  2 Abilene TX    Feb   2019      134271      50659     123420         23.5
##  3 Abilene TX    Mar   2019      134473      50659     123420         23.5
##  4 Abilene TX    Apr   2019      134844      50659     123420         23.5
##  5 Abilene TX    May   2019      135201      50659     123420         23.5
##  6 Abilene TX    Jun   2019      135388      50659     123420         23.5
##  7 Abilene TX    Jul   2019      135521      50659     123420         23.5
##  8 Abilene TX    Aug   2019      136207      50659     123420         23.5
##  9 Abilene TX    Sep   2019      136927      50659     123420         23.5
## 10 Abilene TX    Oct   2019      137398      50659     123420         23.5
## # … with 1,190 more rows
…
tx_join %>% group_by(city) %>% mutate(avg_home_value = mean(home_value)) %>% 
    arrange(desc(avg_home_value))

## # A tibble: 1,200 x 9
## # Groups:   city [50]
##    city  State month year  home_value avg_income population percent_bach
##    <fct> <fct> <chr> <chr>      <int>      <int>      <int>        <dbl>
##  1 Univ… TX    Jan   2019     1429200     224485      24985         87.8
##  2 Univ… TX    Feb   2019     1430456     224485      24985         87.8
##  3 Univ… TX    Mar   2019     1430815     224485      24985         87.8
##  4 Univ… TX    Apr   2019     1431177     224485      24985         87.8
##  5 Univ… TX    May   2019     1431156     224485      24985         87.8
##  6 Univ… TX    Jun   2019     1431910     224485      24985         87.8
##  7 Univ… TX    Jul   2019     1432619     224485      24985         87.8
##  8 Univ… TX    Aug   2019     1434119     224485      24985         87.8
##  9 Univ… TX    Sep   2019     1437813     224485      24985         87.8
## 10 Univ… TX    Oct   2019     1431290     224485      24985         87.8
## # … with 1,190 more rows, and 1 more variable: avg_home_value <dbl>

Create summary statistics

# Summary Statistics using group_by
tx_join %>% group_by(city) %>% select(home_value) %>% summarize(n())

## # A tibble: 50 x 2
##    city        `n()`
##    <fct>       <int>
##  1 Abilene        24
##  2 Amarillo       24
##  3 Arlington      24
##  4 Austin         24
##  5 Beaumont       24
##  6 Bellaire       24
##  7 Bellmead       24
##  8 Big Spring     24
##  9 Brady          24
## 10 Brownsville    24
## # … with 40 more rows

tx_join %>% group_by(year) %>% select(avg_income) %>% summarize(n())

## # A tibble: 2 x 2
##   year  `n()`
##   <chr> <int>
## 1 2019    600
## 2 2020    600

tx_join %>% group_by(city) %>% select(population) %>% summarize(n())

## # A tibble: 50 x 2
##    city        `n()`
##    <fct>       <int>
##  1 Abilene        24
##  2 Amarillo       24
##  3 Arlington      24
##  4 Austin         24
##  5 Beaumont       24
##  6 Bellaire       24
##  7 Bellmead       24
##  8 Big Spring     24
##  9 Brady          24
## 10 Brownsville    24
## # … with 40 more rows

tx_join %>% group_by(year) %>% select(percent_bach) %>% summarize(n())

## # A tibble: 2 x 2
##   year  `n()`
##   <chr> <int>
## 1 2019    600
## 2 2020    600

tx_join %>% group_by(year, city) %>% summarize_all(mean)

## # A tibble: 100 x 8
## # Groups:   year [2]
##    year  city        State month home_value avg_income population percent_bach
##    <chr> <fct>       <dbl> <dbl>      <dbl>      <dbl>      <dbl>        <dbl>
##  1 2019  Abilene        NA    NA    135623.      50659     123420         23.5
##  2 2019  Amarillo       NA    NA    137111.      52725     199371         23.7
##  3 2019  Arlington      NA    NA    213750.      60571     398854         30.3
##  4 2019  Austin         NA    NA    404084.      71576     978908         51.7
##  5 2019  Beaumont       NA    NA    112979.      50632     116825         24.5
##  6 2019  Bellaire       NA    NA    898136.     206734      18971         79.6
##  7 2019  Bellmead       NA    NA     81185.      41696      10744         12.2
##  8 2019  Big Spring     NA    NA    119864.      52275      28187         11.5
##  9 2019  Brady          NA    NA    105968.      44951       5302         12.3
## 10 2019  Brownsville    NA    NA    100067.      38588     182781         18.9
## # … with 90 more rows
…
final_tx <- tx_numeric %>% mutate(cluster = pam_tx$clustering)
final_tx

## # A tibble: 50 x 5
##    home_value avg_income population percent_bach cluster
##         <int>      <int>      <int>        <dbl>   <int>
##  1     134088      50659     123420         23.5       1
##  2     135485      52725     199371         23.7       1
##  3     209390      60571     398854         30.3       1
##  4     394776      71576     978908         51.7       1
##  5     111531      50632     116825         24.5       1
##  6     907836     206734      18971         79.6       2
##  7      76395      41696      10744         12.2       1
##  8     115536      52275      28187         11.5       1
##  9     103087      44951       5302         12.3       1
## 10      98227      38588     182781         18.9       1
## # … with 40 more rows
…
